net/serenitybdd/ukvisarequirement/CucumberTestSuite.class
net/serenitybdd/ukvisarequirement/search/SubmitForm.class
net/serenitybdd/ukvisarequirement/stepdefinitions/SearchUKWebsiteStepDefinitions.class
net/serenitybdd/ukvisarequirement/DefinitionTestSuite.class
net/serenitybdd/ukvisarequirement/search/ResultForm.class
net/serenitybdd/ukvisarequirement/search/SearchForm.class
net/serenitybdd/ukvisarequirement/matchers/TextMatcher.class
net/serenitybdd/ukvisarequirement/search/ProvideNationality.class
net/serenitybdd/ukvisarequirement/search/SelectReason.class
net/serenitybdd/ukvisarequirement/search/VisaResult.class
net/serenitybdd/ukvisarequirement/navigation/HomeOfficeHomePage.class
net/serenitybdd/ukvisarequirement/navigation/NavigateTo.class
